Final.utf8
…
## See spec(...) for full column specifications.

df1 <- select(df,c(-funded_amnt,-funded_amnt_inv,-pymnt_plan,-title,-zip_code,-earliest_cr_line,-revol_bal,-revol_util,-out_prncp_inv,-total_pymnt_inv,-total_rec_int,-total_rec_late_fee,-recoveries,
-collection_recovery_fee,-last_credit_pull_d,
-collections_12_mths_ex_med,-policy_code,-tot_coll_amt,-tot_cur_bal
,-last_pymnt_amnt,-next_pymnt_d,-open_acc_6m,-open_act_il,-open_il_12m,-total_bal_il,-il_util,-open_rv_12m,-max_bal_bc,-inq_fi,-total_cu_tl,-last_pymnt_d))

df1

## # A tibble: 200,000 x 39
##    loan_amnt term  int_rate installment grade sub_grade emp_title emp_length
##        <dbl> <chr>    <dbl>       <dbl> <chr> <chr>     <chr>     <chr>     
##  1     10200 36 m~    14.1         349. C     C3        coustome~ 2 years   
##  2     10400 60 m~    21.4         284  D     D5        Program ~ 2 years   
##  3     22000 60 m~    20           583. D     D4        Letter C~ 10+ years 
##  4     40000 36 m~     7.97       1253. A     A5        VP        5 years   
##  5     21000 36 m~     6.72        646. A     A3        Coordina~ 5 years   
##  6     30000 60 m~    10.4         644. B     B3        Project ~ 2 years   
##  7     31200 60 m~    20           827. D     D4        Quality ~ 2 years   
##  8     10000 36 m~    21.4         379. D     D5        Sr Engin~ < 1 year  
##  9     20000 60 m~    19.0         519. D     D3        manager   10+ years 
## 10      4200 36 m~    13.6         143. C     C2        Administ~ 10+ years 
## # ... with 199,990 more rows, and 31 more variables: home_ownership <chr>,
## #   annual_inc <dbl>, verification_status <chr>, issue_d <chr>,
## #   loan_status <chr>, purpose <chr>, addr_state <chr>, dti <dbl>,
## #   delinq_2yrs <dbl>, inq_last_6mths <dbl>, mths_since_last_delinq <dbl>,
## #   mths_since_last_record <dbl>, open_acc <dbl>, pub_rec <dbl>,
## #   total_acc <dbl>, initial_list_status <chr>, out_prncp <dbl>,
## #   total_pymnt <dbl>, total_rec_prncp <dbl>,
## #   mths_since_last_major_derog <dbl>, application_type <chr>,
## #   annual_inc_joint <dbl>, dti_joint <dbl>, verification_status_joint <chr>,
…
